MainPage__Generated.c:12:19:MainPage_ESD_Label_Font__Property	0	static
MainPage__Generated.c:13:21:MainPage_ESD_Label_Text__Property	0	static
MainPage__Generated.c:14:21:MainPage_button_right_move_Text__Property	0	static
MainPage__Generated.c:15:21:MainPage_button_left_move_Text__Property	0	static
MainPage__Generated.c:184:6:MainPage_End	8	static
MainPage__Generated.c:29:6:MainPage__Fill_Display__Initializer	16	static
MainPage__Generated.c:42:6:MainPage__Ft_Esd_Layout_Vertical__Initializer	16	static
MainPage__Generated.c:55:6:MainPage__Fixed_Positioning__Initializer	16	static
MainPage__Generated.c:68:6:MainPage__ESD_Label__Initializer	16	static
MainPage__Generated.c:83:6:MainPage__Ft_Esd_Layout_Stretch_4__Initializer	16	static
MainPage__Generated.c:96:6:MainPage__Ft_Esd_Layout_Horizontal__Initializer	16	static
MainPage__Generated.c:111:6:MainPage__button_right_move__Initializer	16	static
MainPage__Generated.c:125:6:MainPage__button_left_move__Initializer	16	static
MainPage__Generated.c:139:6:MainPage__Ft_Esd_Layout_Stretch__Initializer	16	static
MainPage__Generated.c:152:6:MainPage__Initializer	8	static
MainPage__Generated.c:174:6:MainPage_Update__Builtin	8	static
MainPage__Generated.c:199:6:MainPage_Update	8	static
