main.c:83:13:Main_End	0	static
main.c:82:13:Main_Idle	0	static
main.c:81:13:Main_Render	0	static
main.c:80:13:Main_Update	0	static
main.c:79:13:Main_Start	0	static
main.c:31:13:Ft_Esd_GetMillis	0	static
main.c:35:13:Ft_Esd_GetDeltaMs	0	static
main.c:39:17:Ft_Esd_GetHost	0	static
main.c:122:6:SystemClock_Config	88	static
main.c:88:5:main	1528	static
main.c:168:6:HAL_TIM_PeriodElapsedCallback	0	static
main.c:185:6:Error_Handler	0	static
