Ft_Esd_Sketch.c:15:6:Ft_Esd_Sketch_Resize_Bitmap	112	static
Ft_Esd_Sketch.c:113:6:Ft_Esd_Sketch_Alloc_Bitmap	16	static
Ft_Esd_Sketch.c:136:6:Ft_Esd_Sketch_Clear_Bitmap	0	static
Ft_Esd_Sketch.c:148:13:Ft_Esd_Sketch_Get_Addr	0	static
Ft_Esd_Sketch.c:155:6:Ft_Esd_Sketch_CoCmd_Sketch	16	static
Ft_Esd_Sketch.c:171:6:Ft_Esd_Sketch_CoCmd_Stop	0	static
Ft_Esd_Sketch.c:178:6:Ft_Esd_Sketch_Render_Bitmap	16	static
