Ft_Esd_LinearRoller__Generated.c:12:5:Ft_Esd_LinearRoller_Length__Default	0	static
Ft_Esd_LinearRoller__Generated.c:16:5:Ft_Esd_LinearRoller_MaxValue__Default	0	static
Ft_Esd_LinearRoller__Generated.c:21:11:Ft_Esd_LinearRoller_IsDisplayAxis__Default	0	static
Ft_Esd_LinearRoller__Generated.c:22:5:Ft_Esd_LinearRoller_LabelPadding__Default	0	static
Ft_Esd_LinearRoller__Generated.c:23:7:Ft_Esd_LinearRoller_MajorLength__Default	0	static
Ft_Esd_LinearRoller__Generated.c:24:5:Ft_Esd_LinearRoller_MajorWidth__Default	0	static
Ft_Esd_LinearRoller__Generated.c:25:7:Ft_Esd_LinearRoller_MinorLength__Default	0	static
Ft_Esd_LinearRoller__Generated.c:26:5:Ft_Esd_LinearRoller_MinorWidth__Default	0	static
Ft_Esd_LinearRoller__Generated.c:27:7:Ft_Esd_LinearRoller_TickLength__Default	0	static
Ft_Esd_LinearRoller__Generated.c:28:5:Ft_Esd_LinearRoller_TickWidth__Default	0	static
Ft_Esd_LinearRoller__Generated.c:41:12:Ft_Esd_LinearRoller_TouchScroll_MaxY__Property	0	static
Ft_Esd_LinearRoller__Generated.c:234:5:Ft_Esd_LinearRoller_TouchScroll_X__Property	0	static
Ft_Esd_LinearRoller__Generated.c:241:5:Ft_Esd_LinearRoller_TouchScroll_Y__Property	0	static
Ft_Esd_LinearRoller__Generated.c:248:5:Ft_Esd_LinearRoller_TouchScroll_Width__Property	0	static
Ft_Esd_LinearRoller__Generated.c:255:5:Ft_Esd_LinearRoller_TouchScroll_Height__Property	0	static
Ft_Esd_LinearRoller__Generated.c:262:11:Ft_Esd_LinearRoller_TouchScroll_EnableXScroll__Property	0	static
Ft_Esd_LinearRoller__Generated.c:269:11:Ft_Esd_LinearRoller_TouchScroll_EnableYScroll__Property	8	static
Ft_Esd_LinearRoller__Generated.c:328:5:Ft_Esd_LinearRoller_TouchScroll_MinY__Property	24	static
Ft_Esd_LinearRoller__Generated.c:277:5:Ft_Esd_LinearRoller_TouchScroll_MinX__Property	0	static
Ft_Esd_LinearRoller__Generated.c:352:5:Ft_Esd_LinearRoller_TouchScroll_DefaultY__Property	24	static
Ft_Esd_LinearRoller__Generated.c:301:5:Ft_Esd_LinearRoller_TouchScroll_DefaultX__Property	0	static
Ft_Esd_LinearRoller__Generated.c:379:6:Ft_Esd_LinearRoller_TouchTagRenderInterface_Rendering__Signal	0	static
Ft_Esd_LinearRoller__Generated.c:147:6:Ft_Esd_LinearRoller_Start	8	static
Ft_Esd_LinearRoller__Generated.c:154:6:Ft_Esd_LinearRoller_Update	32	static
Ft_Esd_LinearRoller__Generated.c:214:6:Ft_Esd_LinearRoller_End	8	static
Ft_Esd_LinearRoller__Generated.c:15:5:Ft_Esd_LinearRoller_Value__Default	0	static
Ft_Esd_LinearRoller__Generated.c:20:11:Ft_Esd_LinearRoller_IsDisplayMinor__Default	0	static
Ft_Esd_LinearRoller__Generated.c:38:12:Ft_Esd_LinearRoller_TouchScroll_MaxX__Property	0	static
Ft_Esd_LinearRoller__Generated.c:13:11:Ft_Esd_LinearRoller_Horizontal__Default	0	static
Ft_Esd_LinearRoller__Generated.c:14:5:Ft_Esd_LinearRoller_MinValue__Default	0	static
Ft_Esd_LinearRoller__Generated.c:17:11:Ft_Esd_LinearRoller_IsTrimToRange__Default	0	static
Ft_Esd_LinearRoller__Generated.c:18:11:Ft_Esd_LinearRoller_ShowTrimRange__Default	0	static
Ft_Esd_LinearRoller__Generated.c:19:11:Ft_Esd_LinearRoller_IsDisplayTick__Default	0	static
Ft_Esd_LinearRoller__Generated.c:56:6:Ft_Esd_LinearRoller__TouchScroll__Initializer	8	static
Ft_Esd_LinearRoller__Generated.c:75:6:Ft_Esd_LinearRoller__Fixed_Positioning__Initializer	16	static
Ft_Esd_LinearRoller__Generated.c:88:6:Ft_Esd_LinearRoller__TouchTagRenderInterface__Initializer	16	static
Ft_Esd_LinearRoller__Generated.c:102:6:Ft_Esd_LinearRoller__Initializer	8	static
Ft_Esd_LinearRoller__Generated.c:222:13:Ft_Esd_LinearRoller_CenterColor	0	static
Ft_Esd_LinearRoller__Generated.c:228:5:Ft_Esd_LinearRoller_CenterValue	0	static
