Ft_Esd_Gauge__Generated.c:16:12:Ft_Esd_Gauge_Alpha__Default	0	static
Ft_Esd_Gauge__Generated.c:18:13:Ft_Esd_Gauge_Range__Default	0	static
Ft_Esd_Gauge__Generated.c:19:13:Ft_Esd_Gauge_Major__Default	0	static
Ft_Esd_Gauge__Generated.c:20:13:Ft_Esd_Gauge_Minor__Default	0	static
Ft_Esd_Gauge__Generated.c:97:12:Ft_Esd_Gauge_Ft_Esd_PosSizeToRadius_X__Property	0	static
Ft_Esd_Gauge__Generated.c:104:12:Ft_Esd_Gauge_Ft_Esd_PosSizeToRadius_Y__Property	0	static
Ft_Esd_Gauge__Generated.c:111:12:Ft_Esd_Gauge_Ft_Esd_PosSizeToRadius_Width__Property	0	static
Ft_Esd_Gauge__Generated.c:118:12:Ft_Esd_Gauge_Ft_Esd_PosSizeToRadius_Height__Property	0	static
Ft_Esd_Gauge__Generated.c:15:16:Ft_Esd_Gauge_Theme__Default	0	static
Ft_Esd_Gauge__Generated.c:72:6:Ft_Esd_Gauge_Render	72	static
Ft_Esd_Gauge__Generated.c:125:6:Ft_Esd_Gauge_Update	8	static
Ft_Esd_Gauge__Generated.c:17:13:Ft_Esd_Gauge_Val__Default	0	static
Ft_Esd_Gauge__Generated.c:39:6:Ft_Esd_Gauge__Ft_Esd_PosSizeToRadius__Initializer	8	static
Ft_Esd_Gauge__Generated.c:50:6:Ft_Esd_Gauge__Initializer	16	static
