Ft_Esd_Ring__Generated.c:11:12:Ft_Esd_Ring_Angle__Default	0	static
Ft_Esd_Ring__Generated.c:13:5:Ft_Esd_Ring_Origin__Default	0	static
Ft_Esd_Ring__Generated.c:14:5:Ft_Esd_Ring_RingWidth__Default	0	static
Ft_Esd_Ring__Generated.c:16:5:Ft_Esd_Ring_OuterBorder__Default	0	static
Ft_Esd_Ring__Generated.c:18:11:Ft_Esd_Ring_EndPoint__Default	0	static
Ft_Esd_Ring__Generated.c:19:13:Ft_Esd_Ring_BackgroundColor__Default	0	static
Ft_Esd_Ring__Generated.c:21:13:Ft_Esd_Ring_BorderColor__Default	0	static
Ft_Esd_Ring__Generated.c:118:6:Ft_Esd_Ring_Update	24	static
Ft_Esd_Ring__Generated.c:193:6:Ft_Esd_Ring_End	8	static
Ft_Esd_Ring__Generated.c:20:13:Ft_Esd_Ring_SelectionColor__Default	0	static
Ft_Esd_Ring__Generated.c:12:11:Ft_Esd_Ring_Clockwise__Default	0	static
Ft_Esd_Ring__Generated.c:15:5:Ft_Esd_Ring_InnerBorder__Default	0	static
Ft_Esd_Ring__Generated.c:17:11:Ft_Esd_Ring_StartPoint__Default	0	static
Ft_Esd_Ring__Generated.c:36:6:Ft_Esd_Ring__Fixed_Positioning__Initializer	16	static
Ft_Esd_Ring__Generated.c:49:6:Ft_Esd_Ring__ArcLine__Initializer	16	static
Ft_Esd_Ring__Generated.c:64:6:Ft_Esd_Ring__CircleLineBG__Initializer	16	static
Ft_Esd_Ring__Generated.c:78:6:Ft_Esd_Ring__CircleLineBorder__Initializer	16	static
Ft_Esd_Ring__Generated.c:92:6:Ft_Esd_Ring__Initializer	8	static
