Ft_Esd_Rectangle__Generated.c:13:12:Ft_Esd_Rectangle_Radius__Default	0	static
Ft_Esd_Rectangle__Generated.c:14:13:Ft_Esd_Rectangle_Color__Default	0	static
Ft_Esd_Rectangle__Generated.c:43:6:Ft_Esd_Rectangle_Render	40	static
Ft_Esd_Rectangle__Generated.c:29:6:Ft_Esd_Rectangle__Initializer	8	static
