Ft_Esd_Label__Generated.c:16:12:Ft_Esd_Label_Alpha__Default	0	static
Ft_Esd_Label__Generated.c:17:12:Ft_Esd_Label_Font__Default	0	static
Ft_Esd_Label__Generated.c:18:16:Ft_Esd_Label_FontResource__Default	0	static
Ft_Esd_Label__Generated.c:19:14:Ft_Esd_Label_Text__Default	0	static
Ft_Esd_Label__Generated.c:21:13:Ft_Esd_Label_AlignY__Default	0	static
Ft_Esd_Label__Generated.c:15:16:Ft_Esd_Label_Theme__Default	0	static
Ft_Esd_Label__Generated.c:218:13:Ft_Esd_Label_Get_Font_Caps_Height__return	16	static
Ft_Esd_Label__Generated.c:62:6:Ft_Esd_Label_Update	8	static
Ft_Esd_Label__Generated.c:79:6:Ft_Esd_Label_Render	72	static
Ft_Esd_Label__Generated.c:20:13:Ft_Esd_Label_AlignX__Default	0	static
Ft_Esd_Label__Generated.c:36:6:Ft_Esd_Label__Initializer	8	static
