Ft_Esd_Image_Rotate__Generated.c:12:19:Ft_Esd_Image_Rotate_BitmapCell__Default	0	static
Ft_Esd_Image_Rotate__Generated.c:45:6:Ft_Esd_Image_Rotate_Render	8	static
Ft_Esd_Image_Rotate__Generated.c:27:6:Ft_Esd_Image_Rotate__Initializer	8	static
