Ft_Esd_TouchTag.c:41:6:Ft_Esd_TouchTag__Initializer	12	static
Ft_Esd_TouchTag.c:183:6:Ft_Esd_TouchTag_End	8	static
Ft_Esd_TouchTag.c:46:6:Ft_Esd_TouchTag_Start	8	static
Ft_Esd_TouchTag.c:85:6:Ft_Esd_TouchTag_Update	24	static
Ft_Esd_TouchTag.c:202:11:Ft_Esd_TouchTag_Touching	0	static
Ft_Esd_TouchTag.c:207:11:Ft_Esd_TouchTag_Inside	0	static
Ft_Esd_TouchTag.c:212:11:Ft_Esd_TouchTag_Hover	0	static
Ft_Esd_TouchTag.c:217:12:Ft_Esd_TouchTag_Tag	0	static
Ft_Esd_TouchTag.c:225:12:Ft_Esd_TouchTag_CurrentTag	0	static
Ft_Esd_TouchTag.c:230:12:Ft_Esd_TouchTag_TouchX	0	static
Ft_Esd_TouchTag.c:235:12:Ft_Esd_TouchTag_TouchY	0	static
Ft_Esd_TouchTag.c:240:12:Ft_Esd_TouchTag_TouchXDelta	0	static
Ft_Esd_TouchTag.c:245:12:Ft_Esd_TouchTag_TouchYDelta	0	static
Ft_Esd_TouchTag.c:250:6:Ft_Esd_TouchTag_SuppressCurrentTags	0	static
