Ft_Esd_TouchScrollLogic__Generated.c:16:11:Ft_Esd_TouchScrollLogic_EnableXScroll__Default	0	static
Ft_Esd_TouchScrollLogic__Generated.c:17:11:Ft_Esd_TouchScrollLogic_EnableYScroll__Default	0	static
Ft_Esd_TouchScrollLogic__Generated.c:18:5:Ft_Esd_TouchScrollLogic_OffsetThreshold__Default	0	static
Ft_Esd_TouchScrollLogic__Generated.c:24:5:Ft_Esd_TouchScrollLogic_MaxY__Default	0	static
Ft_Esd_TouchScrollLogic__Generated.c:154:5:Ft_Esd_TouchScrollLogic_Touch_Area_X__Property	0	static
Ft_Esd_TouchScrollLogic__Generated.c:161:5:Ft_Esd_TouchScrollLogic_Touch_Area_Y__Property	0	static
Ft_Esd_TouchScrollLogic__Generated.c:168:5:Ft_Esd_TouchScrollLogic_Touch_Area_Width__Property	0	static
Ft_Esd_TouchScrollLogic__Generated.c:175:5:Ft_Esd_TouchScrollLogic_Touch_Area_Height__Property	0	static
Ft_Esd_TouchScrollLogic__Generated.c:182:6:Ft_Esd_TouchScrollLogic_Touch_Area_Up__Signal	0	static
Ft_Esd_TouchScrollLogic__Generated.c:190:6:Ft_Esd_TouchScrollLogic_Touch_Area_Down__Signal	24	static
Ft_Esd_TouchScrollLogic__Generated.c:22:5:Ft_Esd_TouchScrollLogic_MinY__Default	0	static
Ft_Esd_TouchScrollLogic__Generated.c:23:5:Ft_Esd_TouchScrollLogic_DefaultY__Default	0	static
Ft_Esd_TouchScrollLogic__Generated.c:12:5:Ft_Esd_TouchScrollLogic_X__Default	0	static
Ft_Esd_TouchScrollLogic__Generated.c:13:5:Ft_Esd_TouchScrollLogic_Y__Default	0	static
Ft_Esd_TouchScrollLogic__Generated.c:14:5:Ft_Esd_TouchScrollLogic_Width__Default	0	static
Ft_Esd_TouchScrollLogic__Generated.c:15:5:Ft_Esd_TouchScrollLogic_Height__Default	0	static
Ft_Esd_TouchScrollLogic__Generated.c:19:5:Ft_Esd_TouchScrollLogic_MinX__Default	0	static
Ft_Esd_TouchScrollLogic__Generated.c:20:5:Ft_Esd_TouchScrollLogic_DefaultX__Default	0	static
Ft_Esd_TouchScrollLogic__Generated.c:21:5:Ft_Esd_TouchScrollLogic_MaxX__Default	0	static
Ft_Esd_TouchScrollLogic__Generated.c:34:6:Ft_Esd_TouchScrollLogic__Touch_Area__Initializer	8	static
Ft_Esd_TouchScrollLogic__Generated.c:47:6:Ft_Esd_TouchScrollLogic__Initializer	8	static
Ft_Esd_TouchScrollLogic__Generated.c:87:6:Ft_Esd_TouchScrollLogic_Start	16	static
Ft_Esd_TouchScrollLogic__Generated.c:96:6:Ft_Esd_TouchScrollLogic_Update	16	static
Ft_Esd_TouchScrollLogic__Generated.c:142:5:Ft_Esd_TouchScrollLogic_ScrolledX	0	static
Ft_Esd_TouchScrollLogic__Generated.c:148:5:Ft_Esd_TouchScrollLogic_ScrolledY	0	static
