FT_Esd_Dl.h:312:25:Ft_Esd_Dl_END	0	static
FT_Esd_Dl.h:154:25:Ft_Esd_Dl_COLOR_ARGB.constprop	24	static
FT_Esd_Dl.h:383:25:Esd_Dl_VERTEX2F_0	32	static
Ft_Esd_Primitives_Gradient.c:17:11:Esd_Render_MultiGradient	64	static
Ft_Esd_Primitives_Gradient.c:120:11:Esd_Render_MultiGradient_Rounded	80	static
