Ft_Esd_CoCmd_IO.c:35:11:Ft_Gpu_CoCmd_MemCpy	24	static
Ft_Esd_CoCmd_IO.c:45:11:Ft_Gpu_CoCmd_MemSet	24	static
Ft_Esd_CoCmd_IO.c:55:11:Ft_Gpu_CoCmd_MemZero	16	static
Ft_Esd_CoCmd_IO.c:64:11:Ft_Gpu_CoCmd_MemWrite	16	static
Ft_Esd_CoCmd_IO.c:73:6:ESD_Cmd_memCrc	24	static
Ft_Esd_CoCmd_IO.c:93:11:Ft_Gpu_CoCmd_LoadImage	16	static
Ft_Esd_CoCmd_IO.c:102:11:Ft_Gpu_CoCmd_Inflate	16	static
Ft_Esd_CoCmd_IO.c:111:11:Ft_Gpu_CoCmd_MediaFifo	16	static
Ft_Esd_CoCmd_IO.c:121:11:Ft_Gpu_CoCmd_Snapshot	16	static
Ft_Esd_CoCmd_IO.c:130:11:Ft_Gpu_CoCmd_Snapshot2	32	static
Ft_Esd_CoCmd_IO.c:237:11:Ft_Gpu_CoCmd_LoadImage_ProgMem	24	static
Ft_Esd_CoCmd_IO.c:254:11:Ft_Gpu_CoCmd_Inflate_ProgMem	24	static
