Ft_Esd_CoCmd.c:35:11:Ft_Gpu_CoCmd_DlStart	0	static
Ft_Esd_CoCmd.c:40:11:Ft_Gpu_CoCmd_Append	16	static
Ft_Esd_CoCmd.c:49:11:Ft_Gpu_CoCmd_Swap	0	static
Ft_Esd_CoCmd.c:54:11:Ft_Gpu_CoCmd_Sketch	32	static
Ft_Esd_CoCmd.c:79:11:Ft_Gpu_CoCmd_PlayVideo	16	static
Ft_Esd_CoCmd.c:88:11:Ft_Gpu_CoCmd_Logo	0	static
Ft_Esd_CoCmd.c:93:11:Ft_Gpu_CoCmd_ScreenSaver	0	static
Ft_Esd_CoCmd.c:98:13:Ft_Gpu_CoCmd_Calibrate	16	static
Ft_Esd_CoCmd.c:113:11:Ft_Gpu_CoCmd_Stop	0	static
Ft_Esd_CoCmd.c:174:6:ESD_Cmd_regRead	24	static
Ft_Esd_CoCmd.c:194:11:Ft_Gpu_CoCmd_VideoStart	0	static
Ft_Esd_CoCmd.c:199:11:Ft_Gpu_CoCmd_VideoFrame	16	static
Ft_Esd_CoCmd.c:209:6:ESD_Cmd_getProps	32	static
Ft_Esd_CoCmd.c:232:6:ESD_Cmd_getPtr	24	static
Ft_Esd_CoCmd.c:250:11:Ft_Gpu_CoCmd_TouchTransform	64	static
Ft_Esd_CoCmd.c:270:11:Ft_Gpu_CoCmd_Interrupt	16	static
Ft_Esd_CoCmd.c:278:6:ESD_Cmd_getMatrix	24	static
Ft_Esd_CoCmd.c:303:11:Ft_Gpu_CoCmd_Sync	0	static
Ft_Esd_CoCmd.c:309:11:Ft_Gpu_CoCmd_Track	32	static
Ft_Esd_CoCmd.c:320:11:Ft_Gpu_CoCmd_Int_RAMShared	16	static
Ft_Esd_CoCmd.c:328:11:Ft_Gpu_CoCmd_Int_SWLoadImage	16	static
